wave.vcd
$date
	Tue Jun 11 17:50:35 2024
$end
$version
	Icarus Verilog
$end
$timescale
	1ps
$end
$scope module tb $end
$var reg 1 ! clk $end
$var reg 1 " rst_ $end
$scope module cpu $end
$var wire 1 ! clk $end
$var wire 1 " rst_ $end
$var wire 32 # write_rf_data [31:0] $end
$var wire 5 $ write_rf_addr [4:0] $end
$var wire 32 % read_reg2 [31:0] $end
$var wire 32 & read_reg1 [31:0] $end
$var wire 32 ' read_mem_data [31:0] $end
$var wire 32 ( pc_input [31:0] $end
$var wire 32 ) next_inst_addr [31:0] $end
$var wire 1 * is_zero $end
$var wire 32 + instruction [31:0] $end
$var wire 32 , extended_inst_offset [31:0] $end
$var wire 32 - curr_inst_addr [31:0] $end
$var wire 32 . alu_result [31:0] $end
$var wire 32 / alu_in2 [31:0] $end
$var wire 1 0 RegWrite $end
$var wire 1 1 RegDst $end
$var wire 1 2 MemtoReg $end
$var wire 1 3 MemWrite $end
$var wire 1 4 MemRead $end
$var wire 1 5 Jump $end
$var wire 1 6 Branch $end
$var wire 2 7 ALUop [1:0] $end
$var wire 3 8 ALU_selection [2:0] $end
$var wire 1 9 ALUSrc $end
$scope module CU $end
$var wire 6 : inst_opcode [5:0] $end
$var reg 1 9 ALUSrc $end
$var reg 2 ; ALUop [1:0] $end
$var reg 1 6 Branch $end
$var reg 1 5 Jump $end
$var reg 1 4 MemRead $end
$var reg 1 3 MemWrite $end
$var reg 1 2 MemtoReg $end
$var reg 1 1 RegDst $end
$var reg 1 0 RegWrite $end
$upscope $end
$scope module DMem $end
$var wire 1 3 MemWrite $end
$var wire 1 ! clk $end
$var wire 32 < read_data [31:0] $end
$var wire 32 = write_data [31:0] $end
$var wire 32 > data_addr [31:0] $end
$upscope $end
$scope module IMem $end
$var wire 1 ! clk $end
$var wire 32 ? read_addr [31:0] $end
$var reg 32 @ instruction [31:0] $end
$upscope $end
$scope module PC $end
$var wire 1 ! clk $end
$var wire 1 " rst_ $end
$var wire 32 A pc_input [31:0] $end
$var wire 32 B next_inst_addr [31:0] $end
$var reg 32 C curr_inst_addr [31:0] $end
$upscope $end
$scope module RegFile $end
$var wire 1 0 RegWrite $end
$var wire 1 ! clk $end
$var wire 5 D read_reg1_addr [4:0] $end
$var wire 5 E read_reg2_addr [4:0] $end
$var wire 5 F write_reg_addr [4:0] $end
$var wire 32 G write_data [31:0] $end
$var wire 32 H read_data2 [31:0] $end
$var wire 32 I read_data1 [31:0] $end
$upscope $end
$scope module alu_ $end
$var wire 1 ! clk $end
$var wire 32 J in1 [31:0] $end
$var wire 1 * is_zero $end
$var wire 32 K in2 [31:0] $end
$var wire 3 L control_in [2:0] $end
$var reg 32 M alu_result [31:0] $end
$upscope $end
$scope module alu_ctrl $end
$var wire 2 N ALUop [1:0] $end
$var wire 6 O inst_funct [5:0] $end
$var reg 3 P ALU_selection_input [2:0] $end
$upscope $end
$scope module mux_ALUSrc $end
$var wire 1 9 MemtoReg $end
$var wire 32 Q in_32_2 [31:0] $end
$var wire 32 R out_32 [31:0] $end
$var wire 32 S in_32_1 [31:0] $end
$upscope $end
$scope module mux_MemtoReg $end
$var wire 1 2 MemtoReg $end
$var wire 32 T in_32_1 [31:0] $end
$var wire 32 U in_32_2 [31:0] $end
$var wire 32 V out_32 [31:0] $end
$upscope $end
$scope module mux_RegDst $end
$var wire 1 1 RegDst $end
$var wire 5 W in_5_1 [4:0] $end
$var wire 5 X in_5_2 [4:0] $end
$var wire 5 Y out_5 [4:0] $end
$upscope $end
$scope module pc_feedback $end
$var wire 1 * ALU_zero $end
$var wire 1 6 Branch $end
$var wire 1 5 Jump $end
$var wire 1 Z branch_sel $end
$var wire 32 [ curr_inst_addr [31:0] $end
$var wire 26 \ jump_inst_addr [25:0] $end
$var wire 32 ] jump_target_inst_addr [31:0] $end
$var wire 32 ^ extended_inst_offset [31:0] $end
$var wire 32 _ branch_target_addr [31:0] $end
$var reg 32 ` pc_input [31:0] $end
$upscope $end
$scope module s $end
$var wire 16 a to_extend [15:0] $end
$var wire 32 b extended [31:0] $end
$upscope $end
$upscope $end
$upscope $end
$enddefinitions $end
$comment Show the parameter values. $end
$dumpall
$end
#0
$dumpvars
bx b
bx a
bx `
bx _
bx ^
b0xxxxxxxxxxxxxxxxxxxxxxxxxxxx00 ]
bx \
bx [
xZ
bx Y
bx X
bx W
bx V
bx U
bx T
bx S
bx R
bx Q
bx P
bx O
bx N
bx M
bx L
bx K
bx J
bx I
bx H
bx G
bx F
bx E
bx D
bx C
bx B
bx A
bx @
bx ?
bx >
bx =
bx <
bx ;
bx :
x9
bx 8
bx 7
x6
x5
x4
x3
x2
x1
x0
bx /
bx .
bx -
bx ,
bx +
x*
bx )
bx (
bx '
bx &
bx %
bx $
bx #
0"
0!
$end
#10
b1011100 #
b1011100 G
b1011100 V
b11000000000000 '
b11000000000000 <
b11000000000000 T
b110000010000100 _
0*
b1011100 .
b1011100 >
b1011100 M
b1011100 U
0Z
b10 8
b10 L
b10 P
b1001000 /
b1001000 K
b1001000 R
b1001000 %
b1001000 =
b1001000 H
b1001000 Q
b10100 &
b10100 I
b10100 J
b11 $
b11 F
b11 Y
05
b10 7
b10 ;
b10 N
06
03
04
10
02
09
11
b1111100001100000100000 \
b100000 O
b1100000100000 ,
b1100000100000 S
b1100000100000 ^
b1100000100000 b
b1100000100000 a
b11110 E
b1 D
b11110 X
b11 W
b0 :
b111110000110000010000000 ]
b100 (
b100 A
b100 `
b1111100001100000100000 +
b1111100001100000100000 @
b100 )
b100 B
b100 [
b0 -
b0 ?
b0 C
1!
#20
0!
#30
1!
#40
0!
#50
1!
#60
1"
0!
#70
b11010000000000 '
b11010000000000 <
b11010000000000 T
b100100 .
b100100 >
b100100 M
b100100 U
b0xx0x0000x00x00 #
b0xx0x0000x00x00 G
b0xx0x0000x00x00 V
b100 /
b100 K
b100 R
b10000001000000000000010000 ]
b10100 %
b10100 =
b10100 H
b10100 Q
b100000 &
b100000 I
b100000 J
b0x $
b0x F
b0x Y
b0 7
b0 ;
b0 N
13
00
x2
19
x1
b100000010000000000000100 \
b100 O
b100 ,
b100 S
b100 ^
b100 b
b100 a
b1 E
b100 D
b1 X
b0 W
b101011 :
b1000 (
b1000 A
b1000 `
b10101100100000010000000000000100 +
b10101100100000010000000000000100 @
b11000 _
b1000 )
b1000 B
b1000 [
b100 -
b100 ?
b100 C
1!
#80
0!
#90
b11100 .
b11100 >
b11100 M
b11100 U
b100100000000000000100000 ]
b1000 /
b1000 K
b1000 R
b100000 %
b100000 =
b100000 H
b100000 Q
b10100 &
b10100 I
b10100 J
b100 $
b100 F
b100 Y
03
14
10
12
01
b1001000000000000001000 \
b1000 O
b1000 ,
b1000 S
b1000 ^
b1000 b
b1000 a
b100 E
b1 D
b100 X
b100011 :
b1100 (
b1100 A
b1100 `
b10001100001001000000000000001000 +
b10001100001001000000000000001000 @
b10110000000000 #
b10110000000000 G
b10110000000000 V
b101100 _
b1100 )
b1100 B
b1100 [
b1000 -
b1000 ?
b1000 C
b10110000000000 '
b10110000000000 <
b10110000000000 T
1!
#100
0!
#110
1Z
b1000000000000 '
b1000000000000 <
b1000000000000 T
1*
b0 .
b0 >
b0 M
b0 U
b0x000000000000 #
b0x000000000000 G
b0x000000000000 V
b100001000000000000000100 ]
b110 8
b110 L
b110 P
b10100 /
b10100 K
b10100 R
b0x $
b0x F
b0x Y
b1 7
b1 ;
b1 N
16
04
00
x2
09
x1
b1000010000000000000001 \
b1 O
b1 ,
b1 S
b1 ^
b1 b
b1 a
b1 E
b1 X
b100 :
b10100 %
b10100 =
b10100 H
b10100 Q
b10100 (
b10100 A
b10100 `
b10000001000010000000000000001 +
b10000001000010000000000000001 @
b10100 _
b10000 )
b10000 B
b10000 [
b1100 -
b1100 ?
b1100 C
1!
#120
0!
#130
b10100000000000 '
b10100000000000 <
b10100000000000 T
0*
b11000 .
b11000 >
b11000 M
b11000 U
0Z
b11000 #
b11000 G
b11000 V
b11100001011110000010001000 ]
b101100 &
b101100 I
b101100 J
b1111 $
b1111 F
b1111 Y
b10 7
b10 ;
b10 N
06
10
02
11
b111000010111100000100010 \
b100010 O
b111100000100010 ,
b111100000100010 S
b111100000100010 ^
b111100000100010 b
b111100000100010 a
b111 D
b1111 W
b0 :
b11000 (
b11000 A
b11000 `
b111000010111100000100010 +
b111000010111100000100010 @
b11110000010100000 _
b11000 )
b11000 B
b11000 [
b10100 -
b10100 ?
b10100 C
1!
#140
0!
#150
b1000000000000 '
b1000000000000 <
b1000000000000 T
1*
b0 .
b0 >
b0 M
b0 U
b0x000000000000 #
b0x000000000000 G
b0x000000000000 V
b0x00 /
b0x00 K
b0x00 R
b10000 ]
bx 8
bx L
bx P
b0 %
b0 =
b0 H
b0 Q
b0 &
b0 I
b0 J
b0 $
b0 F
b0 Y
15
bx 7
bx ;
bx N
00
x2
x9
x1
b100 \
b100 O
b100 ,
b100 S
b100 ^
b100 b
b100 a
b0 E
b0 D
b0 X
b0 W
b10 :
b10000 (
b10000 A
b10000 `
b1000000000000000000000000100 +
b1000000000000000000000000100 @
b101100 _
b11100 )
b11100 B
b11100 [
b11000 -
b11000 ?
b11000 C
1!
#160
0!
#170
b10100000000000 '
b10100000000000 <
b10100000000000 T
0*
b11000 .
b11000 >
b11000 M
b11000 U
b10100 (
b10100 A
b10100 `
b11000 #
b11000 G
b11000 V
b1111101110000010000000 ]
b10 8
b10 L
b10 P
b11000 /
b11000 K
b11000 R
b11000 %
b11000 =
b11000 H
b11000 Q
b10111 $
b10111 F
b10111 Y
05
b10 7
b10 ;
b10 N
10
02
09
11
b11111011100000100000 \
b100000 O
b11111111111111111011100000100000 ,
b11111111111111111011100000100000 S
b11111111111111111011100000100000 ^
b11111111111111111011100000100000 b
b1011100000100000 a
b1111 E
b1111 X
b10111 W
b0 :
b11111011100000100000 +
b11111011100000100000 @
b11111111111111101110000010010100 _
b10100 )
b10100 B
b10100 [
b10000 -
b10000 ?
b10000 C
1!
#180
0!
#190
b11000 #
b11000 G
b11000 V
b10100000000000 '
b10100000000000 <
b10100000000000 T
b10100 /
b10100 K
b10100 R
b11000 .
b11000 >
b11000 M
b11000 U
b11100001011110000010001000 ]
b110 8
b110 L
b110 P
b10100 %
b10100 =
b10100 H
b10100 Q
b101100 &
b101100 I
b101100 J
b1111 $
b1111 F
b1111 Y
b111000010111100000100010 \
b100010 O
b111100000100010 ,
b111100000100010 S
b111100000100010 ^
b111100000100010 b
b111100000100010 a
b1 E
b111 D
b1 X
b1111 W
b11000 (
b11000 A
b11000 `
b111000010111100000100010 +
b111000010111100000100010 @
b11110000010100000 _
b11000 )
b11000 B
b11000 [
b10100 -
b10100 ?
b10100 C
1!
#200
0!
#210
b1000000000000 '
b1000000000000 <
b1000000000000 T
1*
b0 .
b0 >
b0 M
b0 U
b0x000000000000 #
b0x000000000000 G
b0x000000000000 V
b0x00 /
b0x00 K
b0x00 R
b10000 ]
bx 8
bx L
bx P
b0 %
b0 =
b0 H
b0 Q
b0 &
b0 I
b0 J
b0 $
b0 F
b0 Y
15
bx 7
bx ;
bx N
00
x2
x9
x1
b100 \
b100 O
b100 ,
b100 S
b100 ^
b100 b
b100 a
b0 E
b0 D
b0 X
b0 W
b10 :
b10000 (
b10000 A
b10000 `
b1000000000000000000000000100 +
b1000000000000000000000000100 @
b101100 _
b11100 )
b11100 B
b11100 [
b11000 -
b11000 ?
b11000 C
1!
#220
0!
#230
b10100000000000 '
b10100000000000 <
b10100000000000 T
0*
b11000 .
b11000 >
b11000 M
b11000 U
b10100 (
b10100 A
b10100 `
b11000 #
b11000 G
b11000 V
b1111101110000010000000 ]
b10 8
b10 L
b10 P
b11000 /
b11000 K
b11000 R
b11000 %
b11000 =
b11000 H
b11000 Q
b10111 $
b10111 F
b10111 Y
05
b10 7
b10 ;
b10 N
10
02
09
11
b11111011100000100000 \
b100000 O
b11111111111111111011100000100000 ,
b11111111111111111011100000100000 S
b11111111111111111011100000100000 ^
b11111111111111111011100000100000 b
b1011100000100000 a
b1111 E
b1111 X
b10111 W
b0 :
b11111011100000100000 +
b11111011100000100000 @
b11111111111111101110000010010100 _
b10100 )
b10100 B
b10100 [
b10000 -
b10000 ?
b10000 C
1!
#240
0!
#250
b11000 #
b11000 G
b11000 V
b10100000000000 '
b10100000000000 <
b10100000000000 T
b10100 /
b10100 K
b10100 R
b11000 .
b11000 >
b11000 M
b11000 U
b11100001011110000010001000 ]
b110 8
b110 L
b110 P
b10100 %
b10100 =
b10100 H
b10100 Q
b101100 &
b101100 I
b101100 J
b1111 $
b1111 F
b1111 Y
b111000010111100000100010 \
b100010 O
b111100000100010 ,
b111100000100010 S
b111100000100010 ^
b111100000100010 b
b111100000100010 a
b1 E
b111 D
b1 X
b1111 W
b11000 (
b11000 A
b11000 `
b111000010111100000100010 +
b111000010111100000100010 @
b11110000010100000 _
b11000 )
b11000 B
b11000 [
b10100 -
b10100 ?
b10100 C
1!
#260
0!
#270
b1000000000000 '
b1000000000000 <
b1000000000000 T
1*
b0 .
b0 >
b0 M
b0 U
b0x000000000000 #
b0x000000000000 G
b0x000000000000 V
b0x00 /
b0x00 K
b0x00 R
b10000 ]
bx 8
bx L
bx P
b0 %
b0 =
b0 H
b0 Q
b0 &
b0 I
b0 J
b0 $
b0 F
b0 Y
15
bx 7
bx ;
bx N
00
x2
x9
x1
b100 \
b100 O
b100 ,
b100 S
b100 ^
b100 b
b100 a
b0 E
b0 D
b0 X
b0 W
b10 :
b10000 (
b10000 A
b10000 `
b1000000000000000000000000100 +
b1000000000000000000000000100 @
b101100 _
b11100 )
b11100 B
b11100 [
b11000 -
b11000 ?
b11000 C
1!
#280
0!
#290
b10100000000000 '
b10100000000000 <
b10100000000000 T
0*
b11000 .
b11000 >
b11000 M
b11000 U
b10100 (
b10100 A
b10100 `
b11000 #
b11000 G
b11000 V
b1111101110000010000000 ]
b10 8
b10 L
b10 P
b11000 /
b11000 K
b11000 R
b11000 %
b11000 =
b11000 H
b11000 Q
b10111 $
b10111 F
b10111 Y
05
b10 7
b10 ;
b10 N
10
02
09
11
b11111011100000100000 \
b100000 O
b11111111111111111011100000100000 ,
b11111111111111111011100000100000 S
b11111111111111111011100000100000 ^
b11111111111111111011100000100000 b
b1011100000100000 a
b1111 E
b1111 X
b10111 W
b0 :
b11111011100000100000 +
b11111011100000100000 @
b11111111111111101110000010010100 _
b10100 )
b10100 B
b10100 [
b10000 -
b10000 ?
b10000 C
1!
#300
0!
#310
b11000 #
b11000 G
b11000 V
b10100000000000 '
b10100000000000 <
b10100000000000 T
b10100 /
b10100 K
b10100 R
b11000 .
b11000 >
b11000 M
b11000 U
b11100001011110000010001000 ]
b110 8
b110 L
b110 P
b10100 %
b10100 =
b10100 H
b10100 Q
b101100 &
b101100 I
b101100 J
b1111 $
b1111 F
b1111 Y
b111000010111100000100010 \
b100010 O
b111100000100010 ,
b111100000100010 S
b111100000100010 ^
b111100000100010 b
b111100000100010 a
b1 E
b111 D
b1 X
b1111 W
b11000 (
b11000 A
b11000 `
b111000010111100000100010 +
b111000010111100000100010 @
b11110000010100000 _
b11000 )
b11000 B
b11000 [
b10100 -
b10100 ?
b10100 C
1!
#320
0!
#330
b1000000000000 '
b1000000000000 <
b1000000000000 T
1*
b0 .
b0 >
b0 M
b0 U
b0x000000000000 #
b0x000000000000 G
b0x000000000000 V
b0x00 /
b0x00 K
b0x00 R
b10000 ]
bx 8
bx L
bx P
b0 %
b0 =
b0 H
b0 Q
b0 &
b0 I
b0 J
b0 $
b0 F
b0 Y
15
bx 7
bx ;
bx N
00
x2
x9
x1
b100 \
b100 O
b100 ,
b100 S
b100 ^
b100 b
b100 a
b0 E
b0 D
b0 X
b0 W
b10 :
b10000 (
b10000 A
b10000 `
b1000000000000000000000000100 +
b1000000000000000000000000100 @
b101100 _
b11100 )
b11100 B
b11100 [
b11000 -
b11000 ?
b11000 C
1!
#340
0!
#350
b10100000000000 '
b10100000000000 <
b10100000000000 T
0*
b11000 .
b11000 >
b11000 M
b11000 U
b10100 (
b10100 A
b10100 `
b11000 #
b11000 G
b11000 V
b1111101110000010000000 ]
b10 8
b10 L
b10 P
b11000 /
b11000 K
b11000 R
b11000 %
b11000 =
b11000 H
b11000 Q
b10111 $
b10111 F
b10111 Y
05
b10 7
b10 ;
b10 N
10
02
09
11
b11111011100000100000 \
b100000 O
b11111111111111111011100000100000 ,
b11111111111111111011100000100000 S
b11111111111111111011100000100000 ^
b11111111111111111011100000100000 b
b1011100000100000 a
b1111 E
b1111 X
b10111 W
b0 :
b11111011100000100000 +
b11111011100000100000 @
b11111111111111101110000010010100 _
b10100 )
b10100 B
b10100 [
b10000 -
b10000 ?
b10000 C
1!
#360
0!
#370
b11000 #
b11000 G
b11000 V
b10100000000000 '
b10100000000000 <
b10100000000000 T
b10100 /
b10100 K
b10100 R
b11000 .
b11000 >
b11000 M
b11000 U
b11100001011110000010001000 ]
b110 8
b110 L
b110 P
b10100 %
b10100 =
b10100 H
b10100 Q
b101100 &
b101100 I
b101100 J
b1111 $
b1111 F
b1111 Y
b111000010111100000100010 \
b100010 O
b111100000100010 ,
b111100000100010 S
b111100000100010 ^
b111100000100010 b
b111100000100010 a
b1 E
b111 D
b1 X
b1111 W
b11000 (
b11000 A
b11000 `
b111000010111100000100010 +
b111000010111100000100010 @
b11110000010100000 _
b11000 )
b11000 B
b11000 [
b10100 -
b10100 ?
b10100 C
1!
#380
0!
#390
b1000000000000 '
b1000000000000 <
b1000000000000 T
1*
b0 .
b0 >
b0 M
b0 U
b0x000000000000 #
b0x000000000000 G
b0x000000000000 V
b0x00 /
b0x00 K
b0x00 R
b10000 ]
bx 8
bx L
bx P
b0 %
b0 =
b0 H
b0 Q
b0 &
b0 I
b0 J
b0 $
b0 F
b0 Y
15
bx 7
bx ;
bx N
00
x2
x9
x1
b100 \
b100 O
b100 ,
b100 S
b100 ^
b100 b
b100 a
b0 E
b0 D
b0 X
b0 W
b10 :
b10000 (
b10000 A
b10000 `
b1000000000000000000000000100 +
b1000000000000000000000000100 @
b101100 _
b11100 )
b11100 B
b11100 [
b11000 -
b11000 ?
b11000 C
1!
#400
0!
#410
b10100000000000 '
b10100000000000 <
b10100000000000 T
0*
b11000 .
b11000 >
b11000 M
b11000 U
b10100 (
b10100 A
b10100 `
b11000 #
b11000 G
b11000 V
b1111101110000010000000 ]
b10 8
b10 L
b10 P
b11000 /
b11000 K
b11000 R
b11000 %
b11000 =
b11000 H
b11000 Q
b10111 $
b10111 F
b10111 Y
05
b10 7
b10 ;
b10 N
10
02
09
11
b11111011100000100000 \
b100000 O
b11111111111111111011100000100000 ,
b11111111111111111011100000100000 S
b11111111111111111011100000100000 ^
b11111111111111111011100000100000 b
b1011100000100000 a
b1111 E
b1111 X
b10111 W
b0 :
b11111011100000100000 +
b11111011100000100000 @
b11111111111111101110000010010100 _
b10100 )
b10100 B
b10100 [
b10000 -
b10000 ?
b10000 C
1!
#420
0!
#430
b11000 #
b11000 G
b11000 V
b10100000000000 '
b10100000000000 <
b10100000000000 T
b10100 /
b10100 K
b10100 R
b11000 .
b11000 >
b11000 M
b11000 U
b11100001011110000010001000 ]
b110 8
b110 L
b110 P
b10100 %
b10100 =
b10100 H
b10100 Q
b101100 &
b101100 I
b101100 J
b1111 $
b1111 F
b1111 Y
b111000010111100000100010 \
b100010 O
b111100000100010 ,
b111100000100010 S
b111100000100010 ^
b111100000100010 b
b111100000100010 a
b1 E
b111 D
b1 X
b1111 W
b11000 (
b11000 A
b11000 `
b111000010111100000100010 +
b111000010111100000100010 @
b11110000010100000 _
b11000 )
b11000 B
b11000 [
b10100 -
b10100 ?
b10100 C
1!
#440
0!
#450
b1000000000000 '
b1000000000000 <
b1000000000000 T
1*
b0 .
b0 >
b0 M
b0 U
b0x000000000000 #
b0x000000000000 G
b0x000000000000 V
b0x00 /
b0x00 K
b0x00 R
b10000 ]
bx 8
bx L
bx P
b0 %
b0 =
b0 H
b0 Q
b0 &
b0 I
b0 J
b0 $
b0 F
b0 Y
15
bx 7
bx ;
bx N
00
x2
x9
x1
b100 \
b100 O
b100 ,
b100 S
b100 ^
b100 b
b100 a
b0 E
b0 D
b0 X
b0 W
b10 :
b10000 (
b10000 A
b10000 `
b1000000000000000000000000100 +
b1000000000000000000000000100 @
b101100 _
b11100 )
b11100 B
b11100 [
b11000 -
b11000 ?
b11000 C
1!
#460
0!
#470
b10100000000000 '
b10100000000000 <
b10100000000000 T
0*
b11000 .
b11000 >
b11000 M
b11000 U
b10100 (
b10100 A
b10100 `
b11000 #
b11000 G
b11000 V
b1111101110000010000000 ]
b10 8
b10 L
b10 P
b11000 /
b11000 K
b11000 R
b11000 %
b11000 =
b11000 H
b11000 Q
b10111 $
b10111 F
b10111 Y
05
b10 7
b10 ;
b10 N
10
02
09
11
b11111011100000100000 \
b100000 O
b11111111111111111011100000100000 ,
b11111111111111111011100000100000 S
b11111111111111111011100000100000 ^
b11111111111111111011100000100000 b
b1011100000100000 a
b1111 E
b1111 X
b10111 W
b0 :
b11111011100000100000 +
b11111011100000100000 @
b11111111111111101110000010010100 _
b10100 )
b10100 B
b10100 [
b10000 -
b10000 ?
b10000 C
1!
#480
0!
#490
b11000 #
b11000 G
b11000 V
b10100000000000 '
b10100000000000 <
b10100000000000 T
b10100 /
b10100 K
b10100 R
b11000 .
b11000 >
b11000 M
b11000 U
b11100001011110000010001000 ]
b110 8
b110 L
b110 P
b10100 %
b10100 =
b10100 H
b10100 Q
b101100 &
b101100 I
b101100 J
b1111 $
b1111 F
b1111 Y
b111000010111100000100010 \
b100010 O
b111100000100010 ,
b111100000100010 S
b111100000100010 ^
b111100000100010 b
b111100000100010 a
b1 E
b111 D
b1 X
b1111 W
b11000 (
b11000 A
b11000 `
b111000010111100000100010 +
b111000010111100000100010 @
b11110000010100000 _
b11000 )
b11000 B
b11000 [
b10100 -
b10100 ?
b10100 C
1!
#500
0!
#510
b1000000000000 '
b1000000000000 <
b1000000000000 T
1*
b0 .
b0 >
b0 M
b0 U
b0x000000000000 #
b0x000000000000 G
b0x000000000000 V
b0x00 /
b0x00 K
b0x00 R
b10000 ]
bx 8
bx L
bx P
b0 %
b0 =
b0 H
b0 Q
b0 &
b0 I
b0 J
b0 $
b0 F
b0 Y
15
bx 7
bx ;
bx N
00
x2
x9
x1
b100 \
b100 O
b100 ,
b100 S
b100 ^
b100 b
b100 a
b0 E
b0 D
b0 X
b0 W
b10 :
b10000 (
b10000 A
b10000 `
b1000000000000000000000000100 +
b1000000000000000000000000100 @
b101100 _
b11100 )
b11100 B
b11100 [
b11000 -
b11000 ?
b11000 C
1!
#520
0!
#530
b10100000000000 '
b10100000000000 <
b10100000000000 T
0*
b11000 .
b11000 >
b11000 M
b11000 U
b10100 (
b10100 A
b10100 `
b11000 #
b11000 G
b11000 V
b1111101110000010000000 ]
b10 8
b10 L
b10 P
b11000 /
b11000 K
b11000 R
b11000 %
b11000 =
b11000 H
b11000 Q
b10111 $
b10111 F
b10111 Y
05
b10 7
b10 ;
b10 N
10
02
09
11
b11111011100000100000 \
b100000 O
b11111111111111111011100000100000 ,
b11111111111111111011100000100000 S
b11111111111111111011100000100000 ^
b11111111111111111011100000100000 b
b1011100000100000 a
b1111 E
b1111 X
b10111 W
b0 :
b11111011100000100000 +
b11111011100000100000 @
b11111111111111101110000010010100 _
b10100 )
b10100 B
b10100 [
b10000 -
b10000 ?
b10000 C
1!
#540
0!
#550
b11000 #
b11000 G
b11000 V
b10100000000000 '
b10100000000000 <
b10100000000000 T
b10100 /
b10100 K
b10100 R
b11000 .
b11000 >
b11000 M
b11000 U
b11100001011110000010001000 ]
b110 8
b110 L
b110 P
b10100 %
b10100 =
b10100 H
b10100 Q
b101100 &
b101100 I
b101100 J
b1111 $
b1111 F
b1111 Y
b111000010111100000100010 \
b100010 O
b111100000100010 ,
b111100000100010 S
b111100000100010 ^
b111100000100010 b
b111100000100010 a
b1 E
b111 D
b1 X
b1111 W
b11000 (
b11000 A
b11000 `
b111000010111100000100010 +
b111000010111100000100010 @
b11110000010100000 _
b11000 )
b11000 B
b11000 [
b10100 -
b10100 ?
b10100 C
1!
#560
0!
#570
b1000000000000 '
b1000000000000 <
b1000000000000 T
1*
b0 .
b0 >
b0 M
b0 U
b0x000000000000 #
b0x000000000000 G
b0x000000000000 V
b0x00 /
b0x00 K
b0x00 R
b10000 ]
bx 8
bx L
bx P
b0 %
b0 =
b0 H
b0 Q
b0 &
b0 I
b0 J
b0 $
b0 F
b0 Y
15
bx 7
bx ;
bx N
00
x2
x9
x1
b100 \
b100 O
b100 ,
b100 S
b100 ^
b100 b
b100 a
b0 E
b0 D
b0 X
b0 W
b10 :
b10000 (
b10000 A
b10000 `
b1000000000000000000000000100 +
b1000000000000000000000000100 @
b101100 _
b11100 )
b11100 B
b11100 [
b11000 -
b11000 ?
b11000 C
1!
#580
0!
#590
b10100000000000 '
b10100000000000 <
b10100000000000 T
0*
b11000 .
b11000 >
b11000 M
b11000 U
b10100 (
b10100 A
b10100 `
b11000 #
b11000 G
b11000 V
b1111101110000010000000 ]
b10 8
b10 L
b10 P
b11000 /
b11000 K
b11000 R
b11000 %
b11000 =
b11000 H
b11000 Q
b10111 $
b10111 F
b10111 Y
05
b10 7
b10 ;
b10 N
10
02
09
11
b11111011100000100000 \
b100000 O
b11111111111111111011100000100000 ,
b11111111111111111011100000100000 S
b11111111111111111011100000100000 ^
b11111111111111111011100000100000 b
b1011100000100000 a
b1111 E
b1111 X
b10111 W
b0 :
b11111011100000100000 +
b11111011100000100000 @
b11111111111111101110000010010100 _
b10100 )
b10100 B
b10100 [
b10000 -
b10000 ?
b10000 C
1!
#600
0!
#610
b11000 #
b11000 G
b11000 V
b10100000000000 '
b10100000000000 <
b10100000000000 T
b10100 /
b10100 K
b10100 R
b11000 .
b11000 >
b11000 M
b11000 U
b11100001011110000010001000 ]
b110 8
b110 L
b110 P
b10100 %
b10100 =
b10100 H
b10100 Q
b101100 &
b101100 I
b101100 J
b1111 $
b1111 F
b1111 Y
b111000010111100000100010 \
b100010 O
b111100000100010 ,
b111100000100010 S
b111100000100010 ^
b111100000100010 b
b111100000100010 a
b1 E
b111 D
b1 X
b1111 W
b11000 (
b11000 A
b11000 `
b111000010111100000100010 +
b111000010111100000100010 @
b11110000010100000 _
b11000 )
b11000 B
b11000 [
b10100 -
b10100 ?
b10100 C
1!
#620
0!
#630
b1000000000000 '
b1000000000000 <
b1000000000000 T
1*
b0 .
b0 >
b0 M
b0 U
b0x000000000000 #
b0x000000000000 G
b0x000000000000 V
b0x00 /
b0x00 K
b0x00 R
b10000 ]
bx 8
bx L
bx P
b0 %
b0 =
b0 H
b0 Q
b0 &
b0 I
b0 J
b0 $
b0 F
b0 Y
15
bx 7
bx ;
bx N
00
x2
x9
x1
b100 \
b100 O
b100 ,
b100 S
b100 ^
b100 b
b100 a
b0 E
b0 D
b0 X
b0 W
b10 :
b10000 (
b10000 A
b10000 `
b1000000000000000000000000100 +
b1000000000000000000000000100 @
b101100 _
b11100 )
b11100 B
b11100 [
b11000 -
b11000 ?
b11000 C
1!
#640
0!
#650
b10100000000000 '
b10100000000000 <
b10100000000000 T
0*
b11000 .
b11000 >
b11000 M
b11000 U
b10100 (
b10100 A
b10100 `
b11000 #
b11000 G
b11000 V
b1111101110000010000000 ]
b10 8
b10 L
b10 P
b11000 /
b11000 K
b11000 R
b11000 %
b11000 =
b11000 H
b11000 Q
b10111 $
b10111 F
b10111 Y
05
b10 7
b10 ;
b10 N
10
02
09
11
b11111011100000100000 \
b100000 O
b11111111111111111011100000100000 ,
b11111111111111111011100000100000 S
b11111111111111111011100000100000 ^
b11111111111111111011100000100000 b
b1011100000100000 a
b1111 E
b1111 X
b10111 W
b0 :
b11111011100000100000 +
b11111011100000100000 @
b11111111111111101110000010010100 _
b10100 )
b10100 B
b10100 [
b10000 -
b10000 ?
b10000 C
1!
#660
0!
#670
b11000 #
b11000 G
b11000 V
b10100000000000 '
b10100000000000 <
b10100000000000 T
b10100 /
b10100 K
b10100 R
b11000 .
b11000 >
b11000 M
b11000 U
b11100001011110000010001000 ]
b110 8
b110 L
b110 P
b10100 %
b10100 =
b10100 H
b10100 Q
b101100 &
b101100 I
b101100 J
b1111 $
b1111 F
b1111 Y
b111000010111100000100010 \
b100010 O
b111100000100010 ,
b111100000100010 S
b111100000100010 ^
b111100000100010 b
b111100000100010 a
b1 E
b111 D
b1 X
b1111 W
b11000 (
b11000 A
b11000 `
b111000010111100000100010 +
b111000010111100000100010 @
b11110000010100000 _
b11000 )
b11000 B
b11000 [
b10100 -
b10100 ?
b10100 C
1!
#680
0!
#690
b1000000000000 '
b1000000000000 <
b1000000000000 T
1*
b0 .
b0 >
b0 M
b0 U
b0x000000000000 #
b0x000000000000 G
b0x000000000000 V
b0x00 /
b0x00 K
b0x00 R
b10000 ]
bx 8
bx L
bx P
b0 %
b0 =
b0 H
b0 Q
b0 &
b0 I
b0 J
b0 $
b0 F
b0 Y
15
bx 7
bx ;
bx N
00
x2
x9
x1
b100 \
b100 O
b100 ,
b100 S
b100 ^
b100 b
b100 a
b0 E
b0 D
b0 X
b0 W
b10 :
b10000 (
b10000 A
b10000 `
b1000000000000000000000000100 +
b1000000000000000000000000100 @
b101100 _
b11100 )
b11100 B
b11100 [
b11000 -
b11000 ?
b11000 C
1!
#700
0!
